{
	"_id" : ObjectId("599f2a5ae02063d215266418"),
	"processName" : "P6_activities_staging_approval",
	"processId" : "12345",
	"parentToken" : null,
	"properties" : {
			"id" : "599ef73150b27d45d42e9b6a",
			"route" : "p6/activities",
			"params" : {
					"projectObjectId" : 9,
					"id" : "12345",
					"ObjectId" : 287492
			}
	},
	"state" : {
			"tokens" : [ 
					{
							"position" : "Decision",
							"owningProcessId" : "12345"
					}
			]
	},
	"history" : {
			"historyEntries" : [ 
					{
							"name" : "Start",
							"type" : "startEvent",
							"begin" : 1503603290858.0,
							"end" : 1503603290876.0
					}, 
					{
							"name" : "StageData",
							"type" : "task",
							"begin" : 1503603290876.0,
							"end" : 1503603290932.0
					}, 
					{
							"name" : "Decision",
							"type" : "intermediateCatchEvent",
							"begin" : 1503603290932.0,
							"end" : null
					}
			],
			"createdAt" : 1503603290851.0,
			"finishedAt" : null
	},
	"pendingTimeouts" : {},
	"views" : {
			"startEvent" : {
					"name" : "Start",
					"type" : "startEvent",
					"begin" : 1503603290858.0,
					"end" : 1503603290876.0
			},
			"endEvent" : null,
			"duration" : null
	}
}